{
    "KPlugin": {
        "Description": "Yourls",
        "Description[ca@valencia]": "Yourls",
        "Description[ca]": "Yourls",
        "Description[cs]": "Yourls",
        "Description[de]": "Yourls",
        "Description[en_GB]": "Yourls",
        "Description[eo]": "Viaj",
        "Description[es]": "Yourls",
        "Description[fi]": "Yourls",
        "Description[fr]": "Yourls",
        "Description[gl]": "Yourls.",
        "Description[it]": "Yourls",
        "Description[ka]": "Yourls",
        "Description[ko]": "Yourls",
        "Description[nl]": "Yourls",
        "Description[pl]": "Yourls",
        "Description[pt]": "Yourls",
        "Description[pt_BR]": "Yourls",
        "Description[sl]": "Yourls",
        "Description[sv]": "Yourls",
        "Description[tr]": "Yourls",
        "Description[uk]": "Yourls",
        "Description[x-test]": "xxYourlsxx",
        "Icon": "kaboodle",
        "Name": "Yourls",
        "Name[ca@valencia]": "Yourls",
        "Name[ca]": "Yourls",
        "Name[cs]": "Yourls",
        "Name[de]": "Yourls",
        "Name[en_GB]": "Yourls",
        "Name[eo]": "Viaj",
        "Name[es]": "Yourls",
        "Name[fi]": "Yourls",
        "Name[fr]": "Yourls",
        "Name[gl]": "Yourls",
        "Name[it]": "Yourls",
        "Name[ka]": "Yourls",
        "Name[ko]": "Yourls",
        "Name[nl]": "Yourls",
        "Name[pl]": "Yourls",
        "Name[pt]": "Yourls",
        "Name[pt_BR]": "Yourls",
        "Name[sl]": "Yourls",
        "Name[sv]": "Yourls",
        "Name[tr]": "Yourls",
        "Name[uk]": "Yourls",
        "Name[x-test]": "xxYourlsxx"
    }
}
