{
    "KPlugin": {
        "Authors": [
            {
                "Email": "mehrdad.momeny@gmail.com",
                "Name": "Mehrdad Momeny",
                "Name[ca@valencia]": "Mehrdad Momeny",
                "Name[ca]": "Mehrdad Momeny",
                "Name[cs]": "Mehrdad Momeny",
                "Name[de]": "Mehrdad Momeny",
                "Name[en_GB]": "Mehrdad Momeny",
                "Name[eo]": "Mehrdad Momeny",
                "Name[es]": "Mehrdad Momeny",
                "Name[fi]": "Mehrdad Momeny",
                "Name[fr]": "Mehrdad Momeny",
                "Name[gl]": "Mehrdad Momeny",
                "Name[ia]": "Mehrdad Momeny",
                "Name[it]": "Mehrdad Momeny",
                "Name[ka]": "Mehrdad Momeny",
                "Name[ko]": "Mehrdad Momeny",
                "Name[nl]": "Mehrdad Momeny",
                "Name[pl]": "Mehrdad Momeny",
                "Name[pt]": "Mehrdad Momeny",
                "Name[pt_BR]": "Mehrdad Momeny",
                "Name[sl]": "Mehrdad Momeny",
                "Name[sv]": "Mehrdad Momeny",
                "Name[tr]": "Mehrdad Momeny",
                "Name[uk]": "Mehrdad Momeny",
                "Name[x-test]": "xxMehrdad Momenyxx"
            }
        ],
        "Category": "Shorteners",
        "Description": "A plugin to shorten URLs via the Yourls service.",
        "Description[ca@valencia]": "Un connector per a escurçar l'URL a través del servei Yourls.",
        "Description[ca]": "Un connector per a escurçar l'URL a través del servei Yourls.",
        "Description[cs]": "Zásuvný modul pro zkracování URL s použitím služby Yourls.",
        "Description[de]": "Ein Modul, um Adressen (URLs) mit Hilfe des Yourls-Dienstes zu kürzen.",
        "Description[en_GB]": "A plugin to shorten URLs via the Yourls service.",
        "Description[eo]": "Kromaĵo por mallongigi URL-ojn per la servo Yourls.",
        "Description[es]": "Un complemento para acortar URLs a través del servicio Yourls.",
        "Description[fi]": "Liitännäinen verkko-osoitteiden lyhentämiseksi Yourls-palvelulla.",
        "Description[fr]": "Un module externe pour raccourcir des URL grâce au service « Yourls ».",
        "Description[gl]": "Un complemento para abreviar URL mediante o servizo Yourls.",
        "Description[it]": "Un'estensione per abbreviare gli URL con il servizio Yourls.",
        "Description[ka]": "დამატება URL-ის Yourls -ის სერვისით შემოკლებისთვის.",
        "Description[ko]": "Yourls 서비스로 URL을 단축하는 플러그인입니다.",
        "Description[nl]": "Een plugin voor het inkorten van URL's via de Yourls-service.",
        "Description[pl]": "Wtyczka do skracania adresów URL za pomocą usługi Yourls.",
        "Description[pt]": "Um 'plugin' para reduzir os URL's com o serviço Yourls.",
        "Description[pt_BR]": "Plugin para encurtar URLs com o serviço Yourls.",
        "Description[sl]": "Vtičnik za skrajševanje URL-jev prek storitve Yourls.",
        "Description[sv]": "Ett insticksprogram för att avkorta webbadresser via tjänsten Yourls.",
        "Description[tr]": "Yourls hizmetini kullanarak URL'leri kısaltmak için bir eklenti.",
        "Description[uk]": "Додаток для скорочення адрес за допомогою служби Yourls.",
        "Description[x-test]": "xxA plugin to shorten URLs via the Yourls service.xx",
        "EnabledByDefault": false,
        "Icon": "choqok",
        "Id": "choqok_yourls",
        "License": "GPL",
        "Name": "Yourls",
        "Name[ca@valencia]": "Yourls",
        "Name[ca]": "Yourls",
        "Name[cs]": "Yourls",
        "Name[de]": "Yourls",
        "Name[en_GB]": "Yourls",
        "Name[eo]": "Viaj",
        "Name[es]": "Yourls",
        "Name[fi]": "Yourls",
        "Name[fr]": "Yourls",
        "Name[gl]": "Yourls",
        "Name[it]": "Yourls",
        "Name[ka]": "Yourls",
        "Name[ko]": "Yourls",
        "Name[nl]": "Yourls",
        "Name[pl]": "Yourls",
        "Name[pt]": "Yourls",
        "Name[pt_BR]": "Yourls",
        "Name[sl]": "Yourls",
        "Name[sv]": "Yourls",
        "Name[tr]": "Yourls",
        "Name[uk]": "Yourls",
        "Name[x-test]": "xxYourlsxx",
        "Version": "0.1",
        "Website": "https://choqok.kde.org"
    },
    "X-KDE-ConfigModule": "choqok_plugins/kcms/kcm_choqok_yourls"
}
