{
    "KPlugin": {
        "Description": "Upload image to mobypicture.com",
        "Description[ca@valencia]": "Puja imatges a mobypicture.com",
        "Description[ca]": "Puja imatges a mobypicture.com",
        "Description[cs]": "Odeslat obrázek na mobypicture.com",
        "Description[de]": "Bild auf mobypicture.com hochladen",
        "Description[en_GB]": "Upload image to mobypicture.com",
        "Description[eo]": "Alŝutu bildon al mobypicture.com",
        "Description[es]": "Subir imagen a mobypicture.com",
        "Description[fi]": "Lähetä kuva mobypicture.comiin",
        "Description[fr]": "Envoyer une image vers « mobypicture.com »",
        "Description[gl]": "Enviar imaxes a mobypicture.com.",
        "Description[it]": "Carica immagine su mobypicture.com",
        "Description[ka]": "სურათის mobypicture.com-ზე ატვირთვა",
        "Description[ko]": "mobypicture.com에 그림 업로드",
        "Description[nl]": "Afbeelding uploaden naar mobypicture.com",
        "Description[pl]": "Wyślij obraz na mobypicture.com",
        "Description[pt]": "Enviar a imagem para o mobypicture.com",
        "Description[pt_BR]": "Envia imagens para o mobypicture.com",
        "Description[sl]": "Prenesi sliko v mobypicture.com",
        "Description[sv]": "Ladda upp bild till mobypicture.com",
        "Description[tr]": "mobypicture.com'a görsel yükle",
        "Description[uk]": "Вивантаження зображення на mobypicture.com",
        "Description[x-test]": "xxUpload image to mobypicture.comxx",
        "Icon": "kaboodle",
        "Name": "Mobypicture",
        "Name[ca@valencia]": "Mobypicture",
        "Name[ca]": "Mobypicture",
        "Name[cs]": "Mobypicture",
        "Name[de]": "Mobypicture",
        "Name[en_GB]": "Mobypicture",
        "Name[eo]": "Mobybilde",
        "Name[es]": "Mobypicture",
        "Name[fi]": "Mobypicture",
        "Name[fr]": "Mobypicture",
        "Name[gl]": "Mobypicture",
        "Name[it]": "Mobypicture",
        "Name[ka]": "Mobypicture",
        "Name[ko]": "Mobypicture",
        "Name[nl]": "Mobypicture",
        "Name[pl]": "Mobypicture",
        "Name[pt]": "Mobypicture",
        "Name[pt_BR]": "Mobypicture",
        "Name[sl]": "Mobypicture",
        "Name[sv]": "Mobypicture",
        "Name[tr]": "Mobypicture",
        "Name[uk]": "Mobypicture",
        "Name[x-test]": "xxMobypicturexx"
    }
}
