{
    "KPlugin": {
        "Authors": [
            {
                "Email": "gmlastik@gmail.com",
                "Name": "Andrey Esin",
                "Name[ca@valencia]": "Andrey Esin",
                "Name[ca]": "Andrey Esin",
                "Name[cs]": "Andrey Esin",
                "Name[de]": "Andrey Esin",
                "Name[en_GB]": "Andrey Esin",
                "Name[eo]": "Andrej Esin",
                "Name[es]": "Andrey Esin",
                "Name[fi]": "Andrey Esin",
                "Name[fr]": "Andrey Esin",
                "Name[gl]": "Andrey Esin",
                "Name[ia]": "Andrey Esin",
                "Name[it]": "Andrey Esin",
                "Name[ka]": "Andrey Esin",
                "Name[ko]": "Andrey Esin",
                "Name[nl]": "Andrey Esin",
                "Name[pl]": "Andrey Esin",
                "Name[pt]": "Andrey Esin",
                "Name[pt_BR]": "Andrey Esin",
                "Name[sl]": "Andrey Esin",
                "Name[sv]": "Andrey Esin",
                "Name[tr]": "Andrey Esin",
                "Name[uk]": "Andrey Esin",
                "Name[x-test]": "xxAndrey Esinxx"
            }
        ],
        "Category": "Plugins",
        "Description": "Sets status of your instant messenger as your status in micro-blog",
        "Description[ca@valencia]": "Establix l'estat del vostre missatger instantani com a estat en el vostre microblog",
        "Description[ca]": "Estableix l'estat del vostre missatger instantani com a estat en el vostre microblog",
        "Description[cs]": "Nastaví stav vašeho komunikátoru jako stav na mikroblogu",
        "Description[de]": "Setzt den Status Ihres Instant-Messengers auf den Status Ihres Microblogs",
        "Description[en_GB]": "Sets status of your instant messenger as your status in micro-blog",
        "Description[eo]": "Agordas staton de via tujmesaĝilo kiel vian staton en mikroblogo",
        "Description[es]": "Establecer el estado de su aplicación de mensajería como el estado de su micro-blog",
        "Description[fi]": "Näyttää pikaviestipalvelusi tilan mikroblogaustilanasi",
        "Description[fr]": "Définit l'état de votre logiciel de messagerie instantanée comme votre état dans un micro-blog",
        "Description[gl]": "Define o seu estado na mensaxaría instantánea na súa microbitácora.",
        "Description[it]": "Imposta lo stato del programma di messaggistica istantanea uguale al tuo stato nel microblog.",
        "Description[ka]": "თქვენი მესინჯერის სტატუსის მიკრობლოგის სტატუსზე დაყენება",
        "Description[ko]": "내 인스턴트 메신저 상태를 마이크로블로그에 게시",
        "Description[nl]": "De status van uw instant-messenger instellen als uw status in de micro-blog",
        "Description[pl]": "Ustawia stan Twojego komunikatora jako stan w mikroblogu",
        "Description[pt]": "Define o estado das suas mensagens instantâneas como o seu estado no micro-blog",
        "Description[pt_BR]": "Define o status do seu mensageiro instantâneo com o status no microblog",
        "Description[sl]": "Nastavi status vašega takojšnjega sporočila kot vaš status v mikro blogu",
        "Description[sv]": " Anger status för direktmeddelanden som din status i mikroblogg",
        "Description[tr]": "Anlık iletileşme programınızdaki durumu, mikro blog'unuzdaki durumunuz olarak ayarlar.",
        "Description[uk]": "Встановлювати у вашому мікроблозі стану, тотожного до стану у кур’єрі миттєвого обміну повідомленнями",
        "Description[x-test]": "xxSets status of your instant messenger as your status in micro-blogxx",
        "EnabledByDefault": false,
        "Icon": "kopete",
        "Id": "choqok_imstatus",
        "License": "GPL",
        "Name": "IMStatus",
        "Name[ca@valencia]": "IMStatus",
        "Name[ca]": "IMStatus",
        "Name[cs]": "IMStatus",
        "Name[de]": "IMStatus",
        "Name[en_GB]": "IMStatus",
        "Name[eo]": "IMStato",
        "Name[es]": "IMStatus",
        "Name[fi]": "IMStatus",
        "Name[fr]": "IMStatus",
        "Name[gl]": "IMStatus",
        "Name[it]": "Stato IM",
        "Name[ka]": "IMStatus",
        "Name[ko]": "IMStatus",
        "Name[nl]": "IMStatus",
        "Name[pl]": "Dostępność",
        "Name[pt]": "Estado das MI's",
        "Name[pt_BR]": "Status do mensageiro instantâneo",
        "Name[sl]": "IMStatus",
        "Name[sv]": "Meddelandestatus",
        "Name[tr]": "IMStatus",
        "Name[uk]": "Стан у мережі МП",
        "Name[x-test]": "xxIMStatusxx",
        "Version": "0.1",
        "Website": "https://choqok.kde.org"
    },
    "X-KDE-ConfigModule": "choqok_plugins/kcms/kcm_choqok_imstatus"
}
