{
    "KPlugin": {
        "Authors": [
            {
                "Email": "gmlastik@gmail.com",
                "Name": "Andrey Esin",
                "Name[ca@valencia]": "Andrey Esin",
                "Name[ca]": "Andrey Esin",
                "Name[cs]": "Andrey Esin",
                "Name[de]": "Andrey Esin",
                "Name[en_GB]": "Andrey Esin",
                "Name[eo]": "Andrej Esin",
                "Name[es]": "Andrey Esin",
                "Name[fi]": "Andrey Esin",
                "Name[fr]": "Andrey Esin",
                "Name[gl]": "Andrey Esin",
                "Name[ia]": "Andrey Esin",
                "Name[it]": "Andrey Esin",
                "Name[ka]": "Andrey Esin",
                "Name[ko]": "Andrey Esin",
                "Name[nl]": "Andrey Esin",
                "Name[pl]": "Andrey Esin",
                "Name[pt]": "Andrey Esin",
                "Name[pt_BR]": "Andrey Esin",
                "Name[sl]": "Andrey Esin",
                "Name[sv]": "Andrey Esin",
                "Name[tr]": "Andrey Esin",
                "Name[uk]": "Andrey Esin",
                "Name[x-test]": "xxAndrey Esinxx"
            }
        ],
        "Category": "Uploaders",
        "Description": "Upload image to twitgoo.com",
        "Description[ca@valencia]": "Puja imatges a twitgoo.com",
        "Description[ca]": "Puja imatges a twitgoo.com",
        "Description[cs]": "Odeslat obrázek na twitgoo.com",
        "Description[de]": "Bild auf twitgoo.com hochladen",
        "Description[en_GB]": "Upload image to twitgoo.com",
        "Description[eo]": "Alŝutu bildon al twitgoo.com",
        "Description[es]": "Subir imagen a twitgoo.com",
        "Description[fi]": "Lähetä kuva twitgoo.comiin",
        "Description[fr]": "Envoyer une image vers « twitgoo.com »",
        "Description[gl]": "Enviar imaxes a twitgoo.com.",
        "Description[it]": "Carica immagine su twitgoo.com",
        "Description[ka]": "სურათის twitgoo.com-ზე ატვირთვა",
        "Description[ko]": "twitgoo.com에 그림 업로드",
        "Description[nl]": "Afbeelding uploaden naar twitgoo.com",
        "Description[pl]": "Wyślij obraz na twitgoo.com",
        "Description[pt]": "Enviar a imagem para o twitgoo.com",
        "Description[pt_BR]": "Envia imagens para o twitgoo.com",
        "Description[sl]": "Prenesi sliko v twitgoo.com",
        "Description[sv]": "Ladda upp bild till twitgoo.com",
        "Description[tr]": "twitgoo.com'a görsel yükle",
        "Description[uk]": "Вивантаження зображення на twitgoo.com",
        "Description[x-test]": "xxUpload image to twitgoo.comxx",
        "EnabledByDefault": false,
        "Icon": "twitgoo_uploader",
        "Id": "choqok_twitgoo",
        "License": "GPL",
        "Name": "Twitgoo",
        "Name[ca@valencia]": "Twitgoo",
        "Name[ca]": "Twitgoo",
        "Name[cs]": "Twitgoo",
        "Name[de]": "Twitgoo",
        "Name[en_GB]": "Twitgoo",
        "Name[eo]": "Twitgoo",
        "Name[es]": "Twitgoo",
        "Name[fi]": "Twitgoo",
        "Name[fr]": "Twitgoo",
        "Name[gl]": "Twitgoo",
        "Name[it]": "Twitgoo",
        "Name[ka]": "Twitgoo",
        "Name[ko]": "Twitgoo",
        "Name[nl]": "Twitgoo",
        "Name[pl]": "Twitgoo",
        "Name[pt]": "Twitgoo",
        "Name[pt_BR]": "Twitgoo",
        "Name[sl]": "Twitgoo",
        "Name[sv]": "Twitgoo",
        "Name[tr]": "Twitgoo",
        "Name[uk]": "Twitgoo",
        "Name[x-test]": "xxTwitgooxx",
        "Version": "0.1",
        "Website": "https://choqok.kde.org"
    },
    "X-KDE-ConfigModule": "choqok_plugins/kcms/kcm_choqok_twitgoo"
}
